1. Accessing Human Cell Atlas Data • ExploringHCACxG
…
R introduced the ‘pipe’ |>, typically used
to take the output of one command and ‘pipe’ it to the first input
argument of the next command

suppressPackageStartupMessages({
    library(dplyr)
})

tbl <- as_tibble(mtcars, rownames = "car")
tbl
#> # A tibble: 32 × 12
#>    car           mpg   cyl  disp    hp  drat    wt  qsec    vs    am  gear  carb
#>    <chr>       <dbl> <dbl> <dbl> <dbl> <dbl> <dbl> <dbl> <dbl> <dbl> <dbl> <dbl>
#>  1 Mazda RX4    21       6  160    110  3.9   2.62  16.5     0     1     4     4
#>  2 Mazda RX4 …  21       6  160    110  3.9   2.88  17.0     0     1     4     4
#>  3 Datsun 710   22.8     4  108     93  3.85  2.32  18.6     1     1     4     1
#>  4 Hornet 4 D…  21.4     6  258    110  3.08  3.22  19.4     1     0     3     1
#>  5 Hornet Spo…  18.7     8  360    175  3.15  3.44  17.0     0     0     3     2
#>  6 Valiant      18.1     6  225    105  2.76  3.46  20.2     1     0     3     1
#>  7 Duster 360   14.3     8  360    245  3.21  3.57  15.8     0     0     3     4
#>  8 Merc 240D    24.4     4  147.    62  3.69  3.19  20       1     0     4     2
#>  9 Merc 230     22.8     4  141.    95  3.92  3.15  22.9     1     0     4     2
#> 10 Merc 280     19.2     6  168.   123  3.92  3.44  18.3     1     0     4     4
#> # … with 22 more rows
#> # ℹ Use `print(n = ...)` to see more rows
…
Load required packages

suppressPackageStartupMessages({
    library(hca)
    library(LoomExperiment)
    library(SingleCellExperiment)
})

Discover projects

## basic information, like HCA data portal
p <- projects()
p
#> # A tibble: 261 × 14
#>    projectId     proje…¹ genus…² sampl…³ speci…⁴ speci…⁵ selec…⁶ libra…⁷ nucle…⁸
#>    <chr>         <chr>   <list>  <list>  <list>  <list>  <list>  <list>  <list> 
#>  1 74b6d569-3b1… 1.3 Mi… <chr>   <chr>   <chr>   <chr>   <chr>   <chr>   <chr>  
#>  2 53c53cd4-812… A Cell… <chr>   <chr>   <chr>   <chr>   <chr>   <chr>   <chr>  
#>  3 7027adc6-c9c… A Cell… <chr>   <chr>   <chr>   <chr>   <chr>   <chr>   <chr>  
#>  4 94e4ee09-9b4… A Huma… <chr>   <chr>   <chr>   <chr>   <chr>   <chr>   <chr>  
#>  5 60ea42e1-af4… A Prot… <chr>   <chr>   <chr>   <chr>   <chr>   <chr>   <chr>  
#>  6 ef1e3497-515… A Sing… <chr>   <chr>   <chr>   <chr>   <chr>   <chr>   <chr>  
#>  7 f86f1ab4-1fb… A Sing… <chr>   <chr>   <chr>   <chr>   <chr>   <chr>   <chr>  
#>  8 602628d7-c03… A Sing… <chr>   <chr>   <chr>   <chr>   <chr>   <chr>   <chr>  
#>  9 c1810dbc-16d… A cell… <chr>   <chr>   <chr>   <chr>   <chr>   <chr>   <chr>  
#> 10 c0518445-3b3… A cell… <chr>   <chr>   <chr>   <chr>   <chr>   <chr>   <chr>  
#> # … with 251 more rows, 5 more variables: pairedEnd <list>, workflow <list>,
#> #   specimenDisease <list>, donorDisease <list>, developmentStage <list>, and
#> #   abbreviated variable names ¹​projectTitle, ²​genusSpecies, ³​sampleEntityType,
#> #   ⁴​specimenOrgan, ⁵​specimenOrganPart, ⁶​selectedCellType,
#> #   ⁷​libraryConstructionApproach, ⁸​nucleicAcidSource
#> # ℹ Use `print(n = ...)` to see more rows, and `colnames()` to see all variable names

Columns with type <list> usually have some
projects with 0, 1, 2, or more of the corresponding column. This is more
clearly displayed when the dplyr print method allocates more room per
column, or when using glimpse(), or by pulling the column
from the table.

p |>
    select(specimenOrganPart)
#> # A tibble: 261 × 1
#>    specimenOrganPart
#>    <list>           
#>  1 <chr [1]>        
#>  2 <chr [2]>        
#>  3 <chr [0]>        
#>  4 <chr [0]>        
#>  5 <chr [1]>        
#>  6 <chr [4]>        
#>  7 <chr [0]>        
#>  8 <chr [3]>        
#>  9 <chr [0]>        
#> 10 <chr [6]>        
#> # … with 251 more rows
#> # ℹ Use `print(n = ...)` to see more rows
…
The table can be expanded so that there is one row for each
specimenOrganPart, rather than for each project; it is
usually not productive to unnest multiple columns, because this leads to
a combinatorial number of rows.

p |>
    tidyr::unnest(specimenOrganPart)
#> # A tibble: 415 × 14
#>    projectId     proje…¹ genus…² sampl…³ speci…⁴ speci…⁵ selec…⁶ libra…⁷ nucle…⁸
#>    <chr>         <chr>   <list>  <list>  <list>  <chr>   <list>  <list>  <list> 
#>  1 74b6d569-3b1… 1.3 Mi… <chr>   <chr>   <chr>   cortex  <chr>   <chr>   <chr>  
#>  2 53c53cd4-812… A Cell… <chr>   <chr>   <chr>   periph… <chr>   <chr>   <chr>  
#>  3 53c53cd4-812… A Cell… <chr>   <chr>   <chr>   transi… <chr>   <chr>   <chr>  
#>  4 60ea42e1-af4… A Prot… <chr>   <chr>   <chr>   saliva  <chr>   <chr>   <chr>  
#>  5 ef1e3497-515… A Sing… <chr>   <chr>   <chr>   epithe… <chr>   <chr>   <chr>  
#>  6 ef1e3497-515… A Sing… <chr>   <chr>   <chr>   epithe… <chr>   <chr>   <chr>  
#>  7 ef1e3497-515… A Sing… <chr>   <chr>   <chr>   inferi… <chr>   <chr>   <chr>  
#>  8 ef1e3497-515… A Sing… <chr>   <chr>   <chr>   termin… <chr>   <chr>   <chr>  
#>  9 602628d7-c03… A Sing… <chr>   <chr>   <chr>   annulu… <chr>   <chr>   <chr>  
#> 10 602628d7-c03… A Sing… <chr>   <chr>   <chr>   nucleu… <chr>   <chr>   <chr>  
#> # … with 405 more rows, 5 more variables: pairedEnd <list>, workflow <list>,
#> #   specimenDisease <list>, donorDisease <list>, developmentStage <list>, and
#> #   abbreviated variable names ¹​projectTitle, ²​genusSpecies, ³​sampleEntityType,
#> #   ⁴​specimenOrgan, ⁵​specimenOrganPart, ⁶​selectedCellType,
#> #   ⁷​libraryConstructionApproach, ⁸​nucleicAcidSource
#> # ℹ Use `print(n = ...)` to see more rows, and `colnames()` to see all variable names
…
An alternative to working with all projects is to apply filters
during the original query. For instance, to select subsets of projects,
e.g., studying liver. It is possible to specify several filters at once,
as we will see below.

liver_filter <- filters(
    specimenOrgan = list(is = "liver")
)
liver_projects <- projects(liver_filter)
liver_projects |>
    select(projectId, projectTitle)
#> # A tibble: 21 × 2
#>    projectId                            projectTitle                            
#>    <chr>                                <chr>                                   
#>  1 94e4ee09-9b4b-410a-84dc-a751ad36d0df A Human Liver Cell Atlas reveals Hetero…
#>  2 a9301beb-e9fa-42fe-b75c-84e8a460c733 A human cell atlas of fetal gene expres…
#>  3 c31fa434-c9ed-4263-a9b6-d9ffb9d44005 A single-cell atlas of chromatin access…
#>  4 8ab8726d-81b9-4bd2-acc2-4d50bee786b4 An organoid and multi-organ development…
#>  5 04ad400c-58cb-40a5-bc2b-2279e13a910b Blood and immune development in human f…
#>  6 c7c54245-548b-4d4f-b15e-0d7e238ae6c8 Construction of a single-cell transcrip…
#>  7 a9f5323a-ce71-471c-9caf-04cc118fd1d7 Decoding Human Megakaryocyte Development
#>  8 f2fe82f0-4454-4d84-b416-a885f3121e59 Decoding human fetal liver haematopoies…
#>  9 ccef38d7-aa92-4010-9621-c4c7b1182647 Dissecting the clonal nature of allelic…
#> 10 4d6f6c96-2a83-43d8-8fe1-0f53bffd4674 Dissecting the human liver cellular lan…
#> # … with 11 more rows
#> # ℹ Use `print(n = ...)` to see more rows
…
