2. Accessing CellxGene Data From Bioconductor • ExploringHCACxG
…
Connect to the database

db = db()

Discover datasets with 10x assays of African American females

african_american_female <-
    datasets(db) |>
    filter(
        facets_filter(assay, "ontology_term_id", "EFO:0009922"),
        facets_filter(ethnicity, "label", "African American"),
        facets_filter(sex, "label", "female")
    )
african_american_female
#> # A tibble: 21 × 27
#>    dataset_id     colle…¹ assay  cell_…² cell_…³ datas…⁴ devel…⁵ disease ethni…⁶
#>    <chr>          <chr>   <list>   <int> <list>  <chr>   <list>  <list>  <list> 
#>  1 de985818-285f… c9706a… <list>   31696 <list>  https:… <list>  <list>  <list> 
#>  2 f72958f5-7f42… 2f75d2… <list>  982538 <list>  https:… <list>  <list>  <list> 
#>  3 07854d9c-5375… bcb614… <list>  172847 <list>  https:… <list>  <list>  <list> 
#>  4 0b75c598-0893… bcb614… <list>  304652 <list>  https:… <list>  <list>  <list> 
#>  5 32b9bdce-2481… bcb614… <list>  107344 <list>  https:… <list>  <list>  <list> 
#>  6 59b69042-47c2… b9fc3d… <list>   49139 <list>  https:… <list>  <list>  <list> 
#>  7 e763ed0d-0e5a… b9fc3d… <list>    7274 <list>  https:… <list>  <list>  <list> 
#>  8 db0752b9-f20e… b9fc3d… <list>   55348 <list>  https:… <list>  <list>  <list> 
#>  9 d9b4bc69-ed90… b9fc3d… <list>   20000 <list>  https:… <list>  <list>  <list> 
#> 10 bc2a7b3d-f04e… b9fc3d… <list>  109995 <list>  https:… <list>  <list>  <list> 
#> # … with 11 more rows, 18 more variables: is_primary_data <chr>,
#> #   is_valid <lgl>, linked_genesets <lgl>, mean_genes_per_cell <dbl>,
#> #   name <chr>, organism <list>, processing_status <list>, published <lgl>,
#> #   revision <int>, schema_version <chr>, sex <list>, tissue <list>,
#> #   tombstone <lgl>, x_normalization <chr>, created_at <date>,
#> #   published_at <date>, revised_at <date>, updated_at <date>, and abbreviated
#> #   variable names ¹​collection_id, ²​cell_count, ³​cell_type, …
#> # ℹ Use `print(n = ...)` to see more rows, and `colnames()` to see all variable names

Find H5AD files for these datasets; visualize and download one for
illustration

selected_files <-
    left_join(
        african_american_female |> select(dataset_id),
        files(db),
        by = "dataset_id"
    )
selected_files
#> # A tibble: 63 × 8
#>    dataset_id       file_id filen…¹ filet…² s3_uri user_…³ created_at updated_at
#>    <chr>            <chr>   <chr>   <chr>   <chr>  <lgl>   <date>     <date>    
#>  1 de985818-285f-4… d5c6de… local.… H5AD    s3://… TRUE    2021-09-24 2021-09-24
#>  2 de985818-285f-4… a0bcae… local.… RDS     s3://… TRUE    2021-09-24 2021-12-21
#>  3 de985818-285f-4… dff842… explor… CXG     s3://… TRUE    2021-09-24 2021-09-24
#>  4 f72958f5-7f42-4… 2e7374… local.… RDS     s3://… TRUE    2021-10-07 2021-12-21
#>  5 f72958f5-7f42-4… bbce34… explor… CXG     s3://… TRUE    2021-10-07 2021-10-07
#>  6 f72958f5-7f42-4… 091323… local.… H5AD    s3://… TRUE    2021-10-07 2021-10-07
#>  7 07854d9c-5375-4… f6f812… local.… H5AD    s3://… TRUE    2022-02-15 2022-02-15
#>  8 07854d9c-5375-4… 7ae7df… explor… CXG     s3://… TRUE    2022-02-15 2022-02-15
#>  9 07854d9c-5375-4… 3f995f… local.… RDS     s3://… TRUE    2022-02-15 2022-02-15
#> 10 0b75c598-0893-4… 38eaca… local.… H5AD    s3://… TRUE    2022-02-15 2022-02-15
#> # … with 53 more rows, and abbreviated variable names ¹​filename, ²​filetype,
#> #   ³​user_submitted
#> # ℹ Use `print(n = ...)` to see more rows
…
